archives/data_pd/ch1 10kV2s.csv

ProID,Info,,time,Value,
GenTime,2025-03-07 15:46:24,,0.0,0.016,
Record Length,100000 Points,,1.4E-6,0.008,
Sample Interval,1.4E-6 s,,2.8E-6,0.008,
Trigger Time,0.0 s,,4.2E-6,0.016,
Source,CH1,,5.6E-6,0.008,
Vertical Units,(V)/grid,,6.9999996E-6,0.008,
Vertical Scale,0.2,,8.4E-6,0.008,
Vertical Offset,4,,9.8E-6,0.008,
Horizontal Units,s/grid,,1.12E-5,0.008,
Horizontal Scale,0.01,,1.25999995E-5,0.008,
Probe Atten,1.0,,1.3999999E-5,0.008,
,,,1.5399999E-5,0.008,
,,,1.68E-5,0.008,
,,,1.82E-5,0.008,
,,,1.96E-5,0.008,
,,,2.1E-5,0.008,
,,,2.24E-5,0.008,
,,,2.38E-5,0.008,
,,,2.5199999E-5,0.008,
,,,2.6599999E-5,0.008,
,,,2.7999999E-5,0.008,
,,,2.94E-5,0.008,
,,,3.0799998E-5,0.008,
,,,3.2199998E-5,0.008,
,,,3.36E-5,0.008,
,,,3.5E-5,0.008,
,,,3.64E-5,0.0,
,,,3.78E-5,0.0,
,,,3.92E-5,0.0,
,,,4.06E-5,0.0,
,,,4.2E-5,0.0,
,,,4.34E-5,0.0,
,,,4.48E-5,0.0,
,,,4.62E-5,0.0,
,,,4.76E-5,0.0,
,,,4.9E-5,0.0,
,,,5.0399998E-5,0.0,
,,,5.1799998E-5,0.0,
,,,5.3199998E-5,0.0,
,,,5.4599997E-5,0.0,
,,,5.5999997E-5,0.0,
,,,5.74E-5,0.0,
,,,5.88E-5,0.0,
,,,6.02E-5,0.0,
,,,6.1599996E-5,0.0,
,,,6.3E-5,0.0,
,,,6.4399996E-5,0.0,
,,,6.58E-5,0.0,
,,,6.72E-5,0.0,
,,,6.86E-5,0.0,
,,,7.0E-5,0.0,
,,,7.14E-5,0.0,
,,,7.28E-5,0.0,
,,,7.42E-5,0.0,
,,,7.56E-5,0.0,
,,,7.7E-5,0.0,
,,,7.84E-5,0.0,
,,,7.98E-5,-0.008,
,,,8.12E-5,-0.008,
,,,8.2599996E-5,0.0,
,,,8.4E-5,-0.008,
,,,8.5399995E-5,-0.008,
,,,8.68E-5,-0.008,
,,,8.8199995E-5,-0.008,
,,,8.96E-5,-0.008,
,,,9.1E-5,-0.008,
,,,9.24E-5,-0.008,
,,,9.38E-5,-0.008,
,,,9.52E-5,-0.008,
,,,9.66E-5,-0.008,
,,,9.8E-5,-0.008,
,,,9.94E-5,-0.008,
,,,1.00799996E-4,-0.008,
,,,1.022E-4,-0.008,
,,,1.03599996E-4,-0.008,
,,,1.05E-4,-0.008,
,,,1.06399995E-4,-0.008,
,,,1.078E-4,-0.008,
,,,1.09199995E-4,-0.008,
,,,1.106E-4,-0.008,
,,,1.11999994E-4,-0.008,
,,,1.134E-4,-0.008,
,,,1.148E-4,-0.008,
,,,1.162E-4,-0.008,
,,,1.176E-4,-0.008,
,,,1.19E-4,-0.008,
,,,1.204E-4,-0.016,
,,,1.21799996E-4,-0.016,
,,,1.2319999E-4,-0.008,
,,,1.246E-4,-0.016,
,,,1.26E-4,-0.016,
,,,1.274E-4,-0.008,
,,,1.2879999E-4,-0.016,
,,,1.302E-4,-0.008,
,,,1.316E-4,-0.016,
,,,1.33E-4,-0.016,
,,,1.344E-4,-0.016,
,,,1.358E-4,-0.016,
,,,1.372E-4,-0.016,
,,,1.386E-4,-0.016,
,,,1.4E-4,-0.016,
,,,1.414E-4,-0.016,
,,,1.428E-4,-0.016,
,,,1.4419999E-4,-0.016,
,,,1.456E-4,-0.016,
,,,1.47E-4,-0.016,
,,,1.484E-4,-0.016,
,,,1.4979999E-4,-0.016,
,,,1.512E-4,-0.016,
,,,1.526E-4,-0.016,
,,,1.54E-4,-0.016,
,,,1.5539999E-4,-0.016,
,,,1.568E-4,-0.016,
,,,1.582E-4,-0.016,
,,,1.596E-4,-0.016,
,,,1.61E-4,-0.028,
,,,1.624E-4,-0.016,
,,,1.638E-4,-0.016,
,,,1.6519999E-4,-0.016,
,,,1.666E-4,-0.028,
,,,1.68E-4,-0.028,
,,,1.694E-4,-0.028,
,,,1.7079999E-4,-0.028,
,,,1.722E-4,-0.028,
,,,1.736E-4,-0.028,
,,,1.75E-4,-0.028,
,,,1.7639999E-4,-0.028,
,,,1.778E-4,-0.028,
,,,1.792E-4,-0.028,
,,,1.806E-4,-0.028,
,,,1.82E-4,-0.028,
,,,1.834E-4,-0.028,
,,,1.848E-4,-0.028,
,,,1.8619999E-4,-0.028,
,,,1.876E-4,-0.028,
,,,1.89E-4,-0.028,
,,,1.904E-4,-0.028,
,,,1.9179999E-4,-0.028,
,,,1.932E-4,-0.028,
,,,1.946E-4,-0.028,
,,,1.96E-4,-0.028,
,,,1.9739999E-4,-0.028,
,,,1.988E-4,-0.028,
,,,2.002E-4,-0.028,
,,,2.0159999E-4,-0.028,
,,,2.03E-4,-0.028,
,,,2.044E-4,-0.028,
,,,2.058E-4,-0.028,
,,,2.0719999E-4,-0.036000002,
,,,2.086E-4,-0.036000002,
,,,2.1E-4,-0.036000002,
,,,2.114E-4,-0.036000002,
,,,2.1279999E-4,-0.036000002,
,,,2.142E-4,-0.036000002,
,,,2.156E-4,-0.036000002,
,,,2.17E-4,-0.036000002,
,,,2.1839999E-4,-0.036000002,
,,,2.198E-4,-0.036000002,
,,,2.212E-4,-0.036000002,
,,,2.2259999E-4,-0.036000002,
,,,2.2399999E-4,-0.036000002,
,,,2.254E-4,-0.036000002,
,,,2.268E-4,-0.036000002,
,,,2.2819999E-4,-0.036000002,
,,,2.296E-4,-0.036000002,
,,,2.31E-4,-0.036000002,
,,,2.324E-4,-0.036000002,
,,,2.3379999E-4,-0.036000002,
,,,2.352E-4,-0.036000002,
,,,2.366E-4,-0.036000002,
,,,2.38E-4,-0.036000002,
,,,2.3939999E-4,-0.036000002,
,,,2.408E-4,-0.036000002,
,,,2.422E-4,-0.036000002,
,,,2.4359999E-4,-0.036000002,
,,,2.45E-4,-0.036000002,
,,,2.4639998E-4,-0.044000003,
,,,2.478E-4,-0.044000003,
,,,2.492E-4,-0.036000002,
,,,2.506E-4,-0.036000002,
,,,2.52E-4,-0.044000003,
,,,2.534E-4,-0.036000002,
,,,2.548E-4,-0.044000003,
,,,2.562E-4,-0.044000003,
,,,2.5759998E-4,-0.044000003,
,,,2.59E-4,-0.044000003,
,,,2.604E-4,-0.044000003,
,,,2.6179999E-4,-0.044000003,
,,,2.632E-4,-0.044000003,
,,,2.646E-4,-0.044000003,
,,,2.66E-4,-0.044000003,
,,,2.674E-4,-0.044000003,
,,,2.688E-4,-0.044000003,
,,,2.702E-4,-0.044000003,
,,,2.716E-4,-0.044000003,
,,,2.7299998E-4,-0.044000003,
,,,2.744E-4,-0.044000003,
,,,2.758E-4,-0.044000003,
,,,2.772E-4,-0.044000003,
,,,2.786E-4,-0.044000003,
,,,2.8E-4,-0.044000003,
,,,2.814E-4,-0.044000003,
,,,2.828E-4,-0.044000003,
,,,2.8419998E-4,-0.044000003,
,,,2.856E-4,-0.044000003,
,,,2.87E-4,-0.044000003,
,,,2.8839998E-4,-0.044000003,
,,,2.898E-4,-0.044000003,
,,,2.912E-4,-0.044000003,
,,,2.926E-4,-0.052,
,,,2.94E-4,-0.044000003,
,,,2.954E-4,-0.052,
,,,2.968E-4,-0.052,
,,,2.982E-4,-0.052,
,,,2.9959998E-4,-0.052,
,,,3.01E-4,-0.052,
,,,3.024E-4,-0.052,
,,,3.0379998E-4,-0.052,
,,,3.052E-4,-0.052,
,,,3.066E-4,-0.052,
,,,3.08E-4,-0.052,
,,,3.094E-4,-0.052,
,,,3.1079998E-4,-0.052,
,,,3.122E-4,-0.052,
,,,3.136E-4,-0.052,
,,,3.1499998E-4,-0.052,
,,,3.164E-4,-0.052,
,,,3.178E-4,-0.052,
,,,3.192E-4,-0.052,
,,,3.206E-4,-0.052,
,,,3.22E-4,-0.052,
,,,3.234E-4,-0.052,
,,,3.248E-4,-0.052,
,,,3.2619998E-4,-0.052,
,,,3.276E-4,-0.052,
,,,3.29E-4,-0.052,
,,,3.3039998E-4,-0.052,
,,,3.318E-4,-0.052,
,,,3.332E-4,-0.052,
,,,3.346E-4,-0.052,
,,,3.36E-4,-0.060000002,
,,,3.374E-4,-0.052,
,,,3.388E-4,-0.052,
,,,3.402E-4,-0.060000002,
,,,3.4159998E-4,-0.060000002,
,,,3.43E-4,-0.060000002,
,,,3.444E-4,-0.060000002,
,,,3.4579998E-4,-0.060000002,
,,,3.472E-4,-0.060000002,
,,,3.486E-4,-0.060000002,
,,,3.5E-4,-0.060000002,
,,,3.514E-4,-0.060000002,
,,,3.5279998E-4,-0.060000002,
,,,3.542E-4,-0.060000002,
,,,3.556E-4,-0.060000002,
,,,3.5699998E-4,-0.060000002,
,,,3.584E-4,-0.060000002,
,,,3.598E-4,-0.060000002,
,,,3.612E-4,-0.060000002,
,,,3.626E-4,-0.060000002,
,,,3.64E-4,-0.060000002,
,,,3.654E-4,-0.060000002,
,,,3.668E-4,-0.060000002,
,,,3.6819998E-4,-0.060000002,
,,,3.696E-4,-0.060000002,
,,,3.71E-4,-0.060000002,
,,,3.7239998E-4,-0.060000002,
,,,3.738E-4,-0.060000002,
,,,3.752E-4,-0.060000002,
,,,3.766E-4,-0.060000002,
,,,3.78E-4,-0.060000002,
,,,3.7939998E-4,-0.060000002,
,,,3.808E-4,-0.068,
,,,3.822E-4,-0.068,
,,,3.8359998E-4,-0.068,
,,,3.85E-4,-0.068,
,,,3.864E-4,-0.068,
,,,3.8779998E-4,-0.068,
,,,3.892E-4,-0.068,
,,,3.906E-4,-0.068,
,,,3.92E-4,-0.068,
,,,3.934E-4,-0.068,
,,,3.9479998E-4,-0.068,
,,,3.962E-4,-0.068,
,,,3.976E-4,-0.068,
,,,3.9899998E-4,-0.068,
,,,4.004E-4,-0.068,
,,,4.018E-4,-0.068,
,,,4.0319999E-4,-0.068,
,,,4.046E-4,-0.068,
,,,4.06E-4,-0.068,
,,,4.074E-4,-0.068,
,,,4.088E-4,-0.068,
,,,4.1019998E-4,-0.068,
,,,4.116E-4,-0.068,
,,,4.13E-4,-0.068,
,,,4.1439998E-4,-0.068,
,,,4.158E-4,-0.068,
,,,4.172E-4,-0.068,
,,,4.186E-4,-0.068,
,,,4.2E-4,-0.076000005,
,,,4.2139998E-4,-0.068,
,,,4.228E-4,-0.068,
,,,4.242E-4,-0.076000005,
,,,4.2559998E-4,-0.076000005,
,,,4.27E-4,-0.076000005,
,,,4.284E-4,-0.076000005,
,,,4.2979998E-4,-0.076000005,
,,,4.312E-4,-0.076000005,
,,,4.326E-4,-0.076000005,
,,,4.34E-4,-0.076000005,
,,,4.354E-4,-0.076000005,
,,,4.3679998E-4,-0.076000005,
,,,4.382E-4,-0.076000005,
,,,4.396E-4,-0.076000005,
,,,4.4099998E-4,-0.076000005,
,,,4.424E-4,-0.076000005,
,,,4.438E-4,-0.076000005,
,,,4.4519998E-4,-0.076000005,
,,,4.466E-4,-0.076000005,
,,,4.4799998E-4,-0.076000005,
,,,4.494E-4,-0.076000005,
,,,4.508E-4,-0.076000005,
,,,4.5219998E-4,-0.076000005,
,,,4.536E-4,-0.076000005,
,,,4.55E-4,-0.076000005,
,,,4.5639998E-4,-0.076000005,
,,,4.578E-4,-0.076000005,
,,,4.592E-4,-0.076000005,
,,,4.606E-4,-0.076000005,
,,,4.62E-4,-0.08400001,
,,,4.6339998E-4,-0.076000005,
,,,4.648E-4,-0.076000005,
,,,4.662E-4,-0.076000005,
,,,4.6759998E-4,-0.08400001,
,,,4.69E-4,-0.08400001,
,,,4.704E-4,-0.08400001,
,,,4.7179998E-4,-0.08400001,
,,,4.732E-4,-0.08400001,
,,,4.746E-4,-0.08400001,
,,,4.76E-4,-0.08400001,
,,,4.774E-4,-0.08400001,
,,,4.7879998E-4,-0.08400001,
,,,4.802E-4,-0.08400001,
,,,4.816E-4,-0.08400001,
,,,4.8299998E-4,-0.08400001,
,,,4.844E-4,-0.08400001,
,,,4.858E-4,-0.08400001,
,,,4.8719998E-4,-0.08400001,
,,,4.886E-4,-0.08400001,
,,,4.9E-4,-0.08400001,
,,,4.914E-4,-0.08400001,
,,,4.9279997E-4,-0.08400001,
,,,4.942E-4,-0.08400001,
,,,4.956E-4,-0.08400001,
,,,4.97E-4,-0.08400001,
,,,4.984E-4,-0.08400001,
,,,4.9979996E-4,-0.08400001,
,,,5.012E-4,-0.08400001,
,,,5.026E-4,-0.08400001,
,,,5.04E-4,-0.08400001,
,,,5.054E-4,-0.08400001,
,,,5.068E-4,-0.08400001,
,,,5.0819997E-4,-0.08400001,
,,,5.096E-4,-0.08400001,
,,,5.11E-4,-0.08400001,
,,,5.124E-4,-0.09200001,
,,,5.138E-4,-0.08400001,
,,,5.1519996E-4,-0.09200001,
,,,5.166E-4,-0.09200001,
,,,5.18E-4,-0.09200001,
,,,5.194E-4,-0.09200001,
,,,5.208E-4,-0.09200001,
,,,5.222E-4,-0.09200001,
,,,5.2359997E-4,-0.09200001,
,,,5.25E-4,-0.09200001,
,,,5.264E-4,-0.09200001,
,,,5.278E-4,-0.09200001,
,,,5.292E-4,-0.09200001,
,,,5.3059997E-4,-0.09200001,
,,,5.32E-4,-0.09200001,
,,,5.334E-4,-0.09200001,
,,,5.348E-4,-0.09200001,
,,,5.362E-4,-0.09200001,
,,,5.376E-4,-0.09200001,
,,,5.39E-4,-0.09200001,
,,,5.404E-4,-0.09200001,
,,,5.418E-4,-0.09200001,
,,,5.432E-4,-0.09200001,
,,,5.446E-4,-0.09200001,
,,,5.4599997E-4,-0.1,
,,,5.474E-4,-0.1,
,,,5.488E-4,-0.09200001,
,,,5.502E-4,-0.09200001,
,,,5.516E-4,-0.1,
,,,5.5299996E-4,-0.1,
,,,5.544E-4,-0.1,
,,,5.558E-4,-0.1,
,,,5.572E-4,-0.1,
,,,5.586E-4,-0.1,
,,,5.6E-4,-0.1,
,,,5.6139997E-4,-0.1,
,,,5.628E-4,-0.1,
,,,5.642E-4,-0.1,
,,,5.656E-4,-0.1,
,,,5.67E-4,-0.1,
,,,5.6839996E-4,-0.1,
,,,5.698E-4,-0.1,
,,,5.712E-4,-0.1,
,,,5.726E-4,-0.1,
,,,5.74E-4,-0.1,
,,,5.754E-4,-0.1,
,,,5.7679997E-4,-0.1,
,,,5.782E-4,-0.1,
,,,5.796E-4,-0.1,
,,,5.81E-4,-0.1,
,,,5.824E-4,-0.108,
,,,5.8379996E-4,-0.1,
,,,5.852E-4,-0.1,
,,,5.866E-4,-0.1,
,,,5.88E-4,-0.1,
,,,5.894E-4,-0.1,
,,,5.908E-4,-0.108,
,,,5.9219997E-4,-0.1,
,,,5.936E-4,-0.1,
,,,5.95E-4,-0.108,
,,,5.964E-4,-0.108,
,,,5.978E-4,-0.108,
,,,5.9919996E-4,-0.108,
,,,6.006E-4,-0.108,
,,,6.02E-4,-0.108,
,,,6.034E-4,-0.108,
,,,6.048E-4,-0.108,
,,,6.062E-4,-0.108,
,,,6.0759997E-4,-0.108,
,,,6.09E-4,-0.108,
,,,6.104E-4,-0.108,
,,,6.118E-4,-0.108,
,,,6.132E-4,-0.108,
,,,6.1459997E-4,-0.108,
,,,6.16E-4,-0.108,
,,,6.174E-4,-0.108,
,,,6.188E-4,-0.108,
,,,6.202E-4,-0.108,
,,,6.2159996E-4,-0.108,
,,,6.2299997E-4,-0.108,
,,,6.244E-4,-0.108,
,,,6.258E-4,-0.120000005,
,,,6.272E-4,-0.108,
,,,6.286E-4,-0.108,
,,,6.2999997E-4,-0.108,
,,,6.314E-4,-0.120000005,
,,,6.328E-4,-0.120000005,
,,,6.342E-4,-0.108,
,,,6.356E-4,-0.120000005,
,,,6.3699996E-4,-0.120000005,
,,,6.384E-4,-0.120000005,
,,,6.398E-4,-0.120000005,
,,,6.412E-4,-0.120000005,
,,,6.426E-4,-0.120000005,
,,,6.44E-4,-0.120000005,
,,,6.4539997E-4,-0.120000005,
,,,6.468E-4,-0.120000005,
,,,6.482E-4,-0.120000005,
,,,6.496E-4,-0.120000005,
,,,6.51E-4,-0.120000005,
,,,6.5239996E-4,-0.120000005,
,,,6.538E-4,-0.120000005,
,,,6.552E-4,-0.120000005,
,,,6.566E-4,-0.120000005,
,,,6.58E-4,-0.120000005,
,,,6.594E-4,-0.120000005,
,,,6.6079997E-4,-0.120000005,
,,,6.622E-4,-0.120000005,
,,,6.636E-4,-0.120000005,
,,,6.65E-4,-0.120000005,
,,,6.664E-4,-0.120000005,
,,,6.6779996E-4,-0.120000005,
,,,6.692E-4,-0.120000005,
,,,6.706E-4,-0.120000005,
,,,6.72E-4,-0.120000005,
,,,6.734E-4,-0.128,
,,,6.748E-4,-0.128,
,,,6.7619997E-4,-0.120000005,
,,,6.776E-4,-0.128,
,,,6.79E-4,-0.128,
,,,6.804E-4,-0.128,
,,,6.818E-4,-0.128,
,,,6.8319996E-4,-0.128,
,,,6.846E-4,-0.128,
,,,6.86E-4,-0.128,
,,,6.874E-4,-0.128,
,,,6.888E-4,-0.128,
,,,6.9019996E-4,-0.128,
,,,6.9159997E-4,-0.128,
,,,6.93E-4,-0.128,
,,,6.944E-4,-0.128,
,,,6.958E-4,-0.128,
,,,6.972E-4,-0.128,
,,,6.9859996E-4,-0.128,
,,,7.0E-4,-0.128,
,,,7.014E-4,-0.128,
,,,7.028E-4,-0.128,
,,,7.042E-4,-0.128,
,,,7.0559996E-4,-0.128,
,,,7.0699997E-4,-0.128,
,,,7.084E-4,-0.128,
,,,7.098E-4,-0.128,
,,,7.112E-4,-0.128,
,,,7.126E-4,-0.128,
,,,7.1399997E-4,-0.128,
,,,7.154E-4,-0.136,
,,,7.168E-4,-0.136,
,,,7.182E-4,-0.136,
,,,7.196E-4,-0.136,
,,,7.2099996E-4,-0.136,
,,,7.224E-4,-0.136,
,,,7.238E-4,-0.136,
,,,7.252E-4,-0.136,
,,,7.266E-4,-0.136,
,,,7.28E-4,-0.136,
,,,7.2939997E-4,-0.136,
,,,7.308E-4,-0.136,
,,,7.322E-4,-0.136,
,,,7.336E-4,-0.136,
,,,7.35E-4,-0.136,
,,,7.3639996E-4,-0.136,
,,,7.378E-4,-0.136,
,,,7.392E-4,-0.136,
,,,7.406E-4,-0.136,
,,,7.42E-4,-0.136,
,,,7.434E-4,-0.136,
,,,7.4479997E-4,-0.136,
,,,7.462E-4,-0.136,
,,,7.476E-4,-0.136,
,,,7.49E-4,-0.136,
,,,7.504E-4,-0.136,
,,,7.5179996E-4,-0.136,
,,,7.532E-4,-0.136,
,,,7.546E-4,-0.136,
,,,7.56E-4,-0.14400001,
,,,7.574E-4,-0.136,
,,,7.5879996E-4,-0.14400001,
,,,7.6019997E-4,-0.14400001,
,,,7.616E-4,-0.14400001,
,,,7.63E-4,-0.14400001,
,,,7.644E-4,-0.14400001,
,,,7.658E-4,-0.136,
,,,7.6719996E-4,-0.14400001,
,,,7.686E-4,-0.14400001,
,,,7.7E-4,-0.14400001,
,,,7.714E-4,-0.14400001,
,,,7.728E-4,-0.14400001,
,,,7.7419996E-4,-0.14400001,
,,,7.7559997E-4,-0.14400001,
,,,7.77E-4,-0.14400001,
,,,7.784E-4,-0.14400001,
,,,7.798E-4,-0.14400001,
,,,7.812E-4,-0.14400001,
,,,7.8259996E-4,-0.14400001,
,,,7.84E-4,-0.14400001,
,,,7.854E-4,-0.14400001,
,,,7.868E-4,-0.14400001,
,,,7.882E-4,-0.14400001,
,,,7.8959996E-4,-0.14400001,
,,,7.9099997E-4,-0.14400001,
,,,7.924E-4,-0.14400001,
,,,7.938E-4,-0.14400001,
,,,7.952E-4,-0.14400001,
,,,7.966E-4,-0.15200001,
,,,7.9799996E-4,-0.14400001,
,,,7.994E-4,-0.15200001,
,,,8.008E-4,-0.14400001,
,,,8.022E-4,-0.15200001,
,,,8.036E-4,-0.15200001,
,,,8.0499996E-4,-0.15200001,
,,,8.0639997E-4,-0.15200001,
,,,8.078E-4,-0.15200001,
,,,8.092E-4,-0.15200001,
,,,8.106E-4,-0.15200001,
,,,8.12E-4,-0.15200001,
,,,8.1339997E-4,-0.15200001,
,,,8.148E-4,-0.15200001,
,,,8.162E-4,-0.15200001,
,,,8.176E-4,-0.15200001,
,,,8.19E-4,-0.15200001,
,,,8.2039996E-4,-0.15200001,
,,,8.218E-4,-0.15200001,
,,,8.232E-4,-0.15200001,
,,,8.246E-4,-0.15200001,
,,,8.26E-4,-0.15200001,
,,,8.2739996E-4,-0.15200001,
,,,8.2879997E-4,-0.15200001,
,,,8.302E-4,-0.15200001,
,,,8.316E-4,-0.15200001,
,,,8.33E-4,-0.15200001,
,,,8.344E-4,-0.15200001,
,,,8.3579996E-4,-0.15200001,
,,,8.372E-4,-0.15200001,
,,,8.386E-4,-0.16000001,
,,,8.4E-4,-0.15200001,
,,,8.414E-4,-0.15200001,
,,,8.4279996E-4,-0.16000001,
,,,8.4419997E-4,-0.16000001,
,,,8.456E-4,-0.16000001,
,,,8.47E-4,-0.16000001,
,,,8.484E-4,-0.16000001,
,,,8.498E-4,-0.16000001,
,,,8.5119996E-4,-0.16000001,
,,,8.526E-4,-0.16000001,
,,,8.54E-4,-0.16000001,
,,,8.554E-4,-0.16000001,
,,,8.568E-4,-0.16000001,
,,,8.5819996E-4,-0.16000001,
,,,8.5959997E-4,-0.16000001,
,,,8.61E-4,-0.16000001,
,,,8.624E-4,-0.16000001,
,,,8.638E-4,-0.16000001,
,,,8.652E-4,-0.16000001,
,,,8.6659996E-4,-0.16000001,
,,,8.68E-4,-0.16000001,
,,,8.694E-4,-0.16000001,
,,,8.708E-4,-0.16000001,
,,,8.722E-4,-0.16000001,
,,,8.7359996E-4,-0.16000001,
,,,8.7499997E-4,-0.16000001,
,,,8.764E-4,-0.16000001,
,,,8.778E-4,-0.16000001,
,,,8.792E-4,-0.16000001,
,,,8.806E-4,-0.16000001,
,,,8.8199996E-4,-0.16800001,
,,,8.834E-4,-0.16800001,
,,,8.848E-4,-0.16800001,
,,,8.862E-4,-0.16800001,
,,,8.876E-4,-0.16800001,
,,,8.8899996E-4,-0.16800001,
,,,8.9039997E-4,-0.16800001,
,,,8.918E-4,-0.16800001,
,,,8.932E-4,-0.16800001,
,,,8.946E-4,-0.16800001,
,,,8.9599995E-4,-0.16800001,
,,,8.9739996E-4,-0.16800001,
,,,8.988E-4,-0.16800001,
,,,9.002E-4,-0.16800001,
,,,9.016E-4,-0.16800001,
,,,9.03E-4,-0.16800001,
,,,9.0439996E-4,-0.16800001,
,,,9.0579997E-4,-0.16800001,
,,,9.072E-4,-0.16800001,
,,,9.086E-4,-0.16800001,
,,,9.1E-4,-0.16800001,
,,,9.1139995E-4,-0.16800001,
,,,9.1279997E-4,-0.17600001,
,,,9.142E-4,-0.16800001,
,,,9.156E-4,-0.16800001,
,,,9.17E-4,-0.16800001,
,,,9.184E-4,-0.16800001,
,,,9.1979996E-4,-0.17600001,
,,,9.212E-4,-0.17600001,
,,,9.226E-4,-0.17600001,
,,,9.24E-4,-0.16800001,
,,,9.254E-4,-0.17600001,
,,,9.2679996E-4,-0.17600001,
,,,9.2819997E-4,-0.17600001,
,,,9.296E-4,-0.17600001,
,,,9.31E-4,-0.17600001,
,,,9.324E-4,-0.17600001,
,,,9.338E-4,-0.17600001,
,,,9.3519996E-4,-0.17600001,
,,,9.366E-4,-0.17600001,
,,,9.38E-4,-0.17600001,
,,,9.394E-4,-0.17600001,
,,,9.408E-4,-0.17600001,
,,,9.4219996E-4,-0.17600001,
,,,9.4359997E-4,-0.17600001,
,,,9.45E-4,-0.17600001,
,,,9.464E-4,-0.17600001,
,,,9.478E-4,-0.17600001,
,,,9.492E-4,-0.17600001,
,,,9.5059996E-4,-0.17600001,
,,,9.52E-4,-0.17600001,
,,,9.534E-4,-0.17600001,
,,,9.548E-4,-0.17600001,
,,,9.562E-4,-0.17600001,
,,,9.5759996E-4,-0.17600001,
,,,9.5899997E-4,-0.17600001,
,,,9.604E-4,-0.18400002,
,,,9.618E-4,-0.18400002,
,,,9.632E-4,-0.18400002,
,,,9.646E-4,-0.18400002,
,,,9.6599996E-4,-0.18400002,
,,,9.674E-4,-0.18400002,
,,,9.688E-4,-0.18400002,
,,,9.702E-4,-0.18400002,
,,,9.716E-4,-0.18400002,
,,,9.7299996E-4,-0.18400002,
,,,9.7439997E-4,-0.18400002,
,,,9.758E-4,-0.18400002,
,,,9.772E-4,-0.18400002,
,,,9.786E-4,-0.18400002,
,,,9.8E-4,-0.18400002,
,,,9.814E-4,-0.18400002,
,,,9.828E-4,-0.18400002,
,,,9.841999E-4,-0.18400002,
,,,9.855999E-4,-0.18400002,
,,,9.87E-4,-0.18400002,
,,,9.884E-4,-0.18400002,
,,,9.898E-4,-0.18400002,
,,,9.912E-4,-0.192,
,,,9.926E-4,-0.18400002,
,,,9.94E-4,-0.192,
,,,9.954E-4,-0.192,
,,,9.968E-4,-0.18400002,
,,,9.982E-4,-0.192,
,,,9.995999E-4,-0.192,
,,,0.0010009999,-0.192,
,,,0.0010024,-0.192,
,,,0.0010038,-0.192,
,,,0.0010052,-0.192,
,,,0.0010066,-0.192,
,,,0.001008,-0.192,
,,,0.0010094,-0.192,
,,,0.0010108,-0.192,
,,,0.0010122,-0.192,
,,,0.0010136,-0.192,
,,,0.0010149999,-0.192,
,,,0.0010163999,-0.192,
,,,0.0010178,-0.192,
,,,0.0010192,-0.192,
,,,0.0010206,-0.192,
,,,0.001022,-0.192,
,,,0.0010234,-0.192,
,,,0.0010248,-0.192,
,,,0.0010262,-0.192,
,,,0.0010276,-0.192,
,,,0.001029,-0.192,
,,,0.0010303999,-0.192,
,,,0.0010317999,-0.192,
,,,0.0010332,-0.192,
,,,0.0010346,-0.192,
,,,0.001036,-0.2,
,,,0.0010374,-0.192,
,,,0.0010388,-0.192,
,,,0.0010402,-0.2,
,,,0.0010416,-0.2,
,,,0.001043,-0.2,
,,,0.0010444,-0.2,
,,,0.0010457999,-0.2,
,,,0.0010471999,-0.2,
,,,0.0010486,-0.2,
,,,0.00105,-0.2,
,,,0.0010514,-0.2,
,,,0.0010528,-0.2,
,,,0.0010542,-0.2,
,,,0.0010556,-0.2,
,,,0.001057,-0.2,
,,,0.0010584,-0.2,
,,,0.0010598,-0.2,
,,,0.0010611999,-0.2,
,,,0.0010626,-0.2,
,,,0.001064,-0.2,
,,,0.0010654,-0.2,
,,,0.0010668,-0.2,
,,,0.0010682,-0.2,
,,,0.0010696,-0.2,
,,,0.001071,-0.21200001,
,,,0.0010724,-0.2,
,,,0.0010738,-0.2,
,,,0.0010752,-0.21200001,
,,,0.0010765999,-0.2,
,,,0.001078,-0.21200001,
,,,0.0010794,-0.21200001,
,,,0.0010808,-0.21200001,
,,,0.0010822,-0.21200001,
,,,0.0010836,-0.21200001,
,,,0.001085,-0.21200001,
,,,0.0010864,-0.21200001,
,,,0.0010878,-0.21200001,
,,,0.0010892,-0.21200001,
,,,0.0010905999,-0.21200001,
,,,0.0010919999,-0.21200001,
,,,0.0010934,-0.21200001,
,,,0.0010948,-0.21200001,
,,,0.0010962,-0.21200001,
,,,0.0010976,-0.21200001,
,,,0.001099,-0.21200001,
,,,0.0011004,-0.21200001,
,,,0.0011018,-0.21200001,
,,,0.0011032,-0.21200001,
,,,0.0011046,-0.21200001,
,,,0.0011059999,-0.21200001,
,,,0.0011073999,-0.21200001,
,,,0.0011088,-0.22000001,
,,,0.0011102,-0.21200001,
,,,0.0011116,-0.21200001,
,,,0.001113,-0.22000001,
,,,0.0011144,-0.22000001,
,,,0.0011158,-0.21200001,
,,,0.0011172,-0.22000001,
,,,0.0011186,-0.22000001,
,,,0.00112,-0.22000001,
,,,0.0011213999,-0.22000001,
,,,0.0011227999,-0.22000001,
,,,0.0011242,-0.22000001,
,,,0.0011256,-0.22000001,
,,,0.001127,-0.22000001,
,,,0.0011284,-0.22000001,
,,,0.0011298,-0.22000001,
,,,0.0011312,-0.22000001,
,,,0.0011326,-0.22000001,
,,,0.001134,-0.22000001,
,,,0.0011354,-0.22000001,
,,,0.0011367999,-0.22000001,
,,,0.0011381999,-0.22000001,
,,,0.0011396,-0.22000001,
,,,0.001141,-0.22000001,
,,,0.0011424,-0.22000001,
,,,0.0011438,-0.22000001,
,,,0.0011452,-0.22000001,
,,,0.0011466,-0.22000001,
,,,0.001148,-0.22000001,
,,,0.0011494,-0.22000001,
,,,0.0011508,-0.22000001,
,,,0.0011521999,-0.22800002,
,,,0.0011535999,-0.22800002,
,,,0.001155,-0.22800002,
,,,0.0011564,-0.22800002,
,,,0.0011578,-0.22800002,
,,,0.0011592,-0.22800002,
,,,0.0011606,-0.22800002,
,,,0.001162,-0.22800002,
,,,0.0011634,-0.22800002,
,,,0.0011648,-0.22800002,
,,,0.0011662,-0.22800002,
,,,0.0011675999,-0.22800002,
,,,0.0011689999,-0.22800002,
,,,0.0011704,-0.22800002,
,,,0.0011718,-0.22800002,
,,,0.0011732,-0.22800002,
,,,0.0011746,-0.22800002,
,,,0.001176,-0.22800002,
,,,0.0011774,-0.22800002,
,,,0.0011788,-0.22800002,
,,,0.0011802,-0.22800002,
