archives/data_pd/ch2 10kV1s.csv

ProID,Info,,time,Value,
GenTime,2025-03-07 15:45:18,,0.0,0.0016,
Record Length,100000 Points,,1.4E-6,8.0E-4,
Sample Interval,1.4E-6 s,,2.8E-6,8.0E-4,
Trigger Time,0.0 s,,4.2E-6,0.0016,
Source,CH2,,5.6E-6,8.0E-4,
Vertical Units,(V)/grid,,6.9999996E-6,-8.0E-4,
Vertical Scale,0.02,,8.4E-6,8.0E-4,
Vertical Offset,4,,9.8E-6,0.0,
Horizontal Units,s/grid,,1.12E-5,-0.0019999999,
Horizontal Scale,0.01,,1.25999995E-5,0.0016,
Probe Atten,1.0,,1.3999999E-5,0.0016,
,,,1.5399999E-5,-0.0028,
,,,1.68E-5,8.0E-4,
,,,1.82E-5,0.0016,
,,,1.96E-5,-8.0E-4,
,,,2.1E-5,0.0,
,,,2.24E-5,0.0,
,,,2.38E-5,8.0E-4,
,,,2.5199999E-5,0.0023999999,
,,,2.6599999E-5,8.0E-4,
,,,2.7999999E-5,-0.0028,
,,,2.94E-5,8.0E-4,
,,,3.0799998E-5,0.0016,
,,,3.2199998E-5,0.0,
,,,3.36E-5,8.0E-4,
,,,3.5E-5,8.0E-4,
,,,3.64E-5,-8.0E-4,
,,,3.78E-5,0.0016,
,,,3.92E-5,0.0032,
,,,4.06E-5,0.0,
,,,4.2E-5,0.0,
,,,4.34E-5,0.0,
,,,4.48E-5,0.0,
,,,4.62E-5,0.0016,
,,,4.76E-5,0.0023999999,
,,,4.9E-5,0.0,
,,,5.0399998E-5,0.0,
,,,5.1799998E-5,0.0,
,,,5.3199998E-5,0.0016,
,,,5.4599997E-5,-8.0E-4,
,,,5.5999997E-5,0.0,
,,,5.74E-5,8.0E-4,
,,,5.88E-5,0.0,
,,,6.02E-5,8.0E-4,
,,,6.1599996E-5,8.0E-4,
,,,6.3E-5,8.0E-4,
,,,6.4399996E-5,0.0,
,,,6.58E-5,-8.0E-4,
,,,6.72E-5,0.0016,
,,,6.86E-5,0.0,
,,,7.0E-5,0.0016,
,,,7.14E-5,0.0,
,,,7.28E-5,-8.0E-4,
,,,7.42E-5,0.0032,
,,,7.56E-5,0.0,
,,,7.7E-5,0.0,
,,,7.84E-5,8.0E-4,
,,,7.98E-5,8.0E-4,
,,,8.12E-5,0.0023999999,
,,,8.2599996E-5,8.0E-4,
,,,8.4E-5,-0.0019999999,
,,,8.5399995E-5,8.0E-4,
,,,8.68E-5,8.0E-4,
,,,8.8199995E-5,-8.0E-4,
,,,8.96E-5,8.0E-4,
,,,9.1E-5,0.0016,
,,,9.24E-5,-8.0E-4,
,,,9.38E-5,0.0,
,,,9.52E-5,0.0,
,,,9.66E-5,-8.0E-4,
,,,9.8E-5,-8.0E-4,
,,,9.94E-5,0.0,
,,,1.00799996E-4,0.0016,
,,,1.022E-4,8.0E-4,
,,,1.03599996E-4,0.0016,
,,,1.05E-4,0.0,
,,,1.06399995E-4,-8.0E-4,
,,,1.078E-4,8.0E-4,
,,,1.09199995E-4,0.0023999999,
,,,1.106E-4,-8.0E-4,
,,,1.11999994E-4,8.0E-4,
,,,1.134E-4,8.0E-4,
,,,1.148E-4,0.0,
,,,1.162E-4,0.0,
,,,1.176E-4,8.0E-4,
,,,1.19E-4,0.0,
,,,1.204E-4,0.0,
,,,1.21799996E-4,8.0E-4,
,,,1.2319999E-4,-0.0019999999,
,,,1.246E-4,0.0,
,,,1.26E-4,0.0,
,,,1.274E-4,-8.0E-4,
,,,1.2879999E-4,-8.0E-4,
,,,1.302E-4,0.0016,
,,,1.316E-4,8.0E-4,
,,,1.33E-4,0.0,
,,,1.344E-4,8.0E-4,
,,,1.358E-4,0.0,
,,,1.372E-4,8.0E-4,
,,,1.386E-4,0.0032,
,,,1.4E-4,0.0,
,,,1.414E-4,8.0E-4,
,,,1.428E-4,0.0023999999,
,,,1.4419999E-4,-8.0E-4,
,,,1.456E-4,8.0E-4,
,,,1.47E-4,0.0,
,,,1.484E-4,0.0,
,,,1.4979999E-4,8.0E-4,
,,,1.512E-4,8.0E-4,
,,,1.526E-4,0.0,
,,,1.54E-4,0.0023999999,
,,,1.5539999E-4,-0.0036,
,,,1.568E-4,8.0E-4,
,,,1.582E-4,0.0,
,,,1.596E-4,8.0E-4,
,,,1.61E-4,8.0E-4,
,,,1.624E-4,-8.0E-4,
,,,1.638E-4,0.0016,
,,,1.6519999E-4,0.0,
,,,1.666E-4,8.0E-4,
,,,1.68E-4,0.0,
,,,1.694E-4,8.0E-4,
,,,1.7079999E-4,8.0E-4,
,,,1.722E-4,-8.0E-4,
,,,1.736E-4,0.0032,
,,,1.75E-4,-8.0E-4,
,,,1.7639999E-4,0.0016,
,,,1.778E-4,-0.0019999999,
,,,1.792E-4,0.0023999999,
,,,1.806E-4,-8.0E-4,
,,,1.82E-4,0.0,
,,,1.834E-4,0.0,
,,,1.848E-4,-8.0E-4,
,,,1.8619999E-4,8.0E-4,
,,,1.876E-4,0.0016,
,,,1.89E-4,0.0,
,,,1.904E-4,0.0,
,,,1.9179999E-4,-0.0036,
,,,1.932E-4,0.0023999999,
,,,1.946E-4,-8.0E-4,
,,,1.96E-4,-8.0E-4,
,,,1.9739999E-4,0.0,
,,,1.988E-4,8.0E-4,
,,,2.002E-4,8.0E-4,
,,,2.0159999E-4,0.0,
,,,2.03E-4,8.0E-4,
,,,2.044E-4,8.0E-4,
,,,2.058E-4,-0.0019999999,
,,,2.0719999E-4,0.0023999999,
,,,2.086E-4,8.0E-4,
,,,2.1E-4,8.0E-4,
,,,2.114E-4,-8.0E-4,
,,,2.1279999E-4,-8.0E-4,
,,,2.142E-4,0.0016,
,,,2.156E-4,0.0023999999,
,,,2.17E-4,0.0,
,,,2.1839999E-4,8.0E-4,
,,,2.198E-4,-8.0E-4,
,,,2.212E-4,0.0023999999,
,,,2.2259999E-4,0.0016,
,,,2.2399999E-4,0.0016,
,,,2.254E-4,-8.0E-4,
,,,2.268E-4,0.0,
,,,2.2819999E-4,8.0E-4,
,,,2.296E-4,-8.0E-4,
,,,2.31E-4,-0.0019999999,
,,,2.324E-4,0.0,
,,,2.3379999E-4,-0.0019999999,
,,,2.352E-4,0.0016,
,,,2.366E-4,0.0,
,,,2.38E-4,0.0,
,,,2.3939999E-4,0.0,
,,,2.408E-4,0.0,
,,,2.422E-4,0.0,
,,,2.4359999E-4,0.0016,
,,,2.45E-4,-8.0E-4,
,,,2.4639998E-4,-8.0E-4,
,,,2.478E-4,8.0E-4,
,,,2.492E-4,8.0E-4,
,,,2.506E-4,0.0,
,,,2.52E-4,0.0016,
,,,2.534E-4,-8.0E-4,
,,,2.548E-4,-0.0019999999,
,,,2.562E-4,0.0,
,,,2.5759998E-4,-8.0E-4,
,,,2.59E-4,-0.0019999999,
,,,2.604E-4,0.0016,
,,,2.6179999E-4,-0.0019999999,
,,,2.632E-4,0.0016,
,,,2.646E-4,0.0,
,,,2.66E-4,0.0,
,,,2.674E-4,0.0,
,,,2.688E-4,-8.0E-4,
,,,2.702E-4,0.0032,
,,,2.716E-4,0.0016,
,,,2.7299998E-4,0.0016,
,,,2.744E-4,0.0,
,,,2.758E-4,0.0,
,,,2.772E-4,0.0023999999,
,,,2.786E-4,8.0E-4,
,,,2.8E-4,8.0E-4,
,,,2.814E-4,-0.0019999999,
,,,2.828E-4,0.0016,
,,,2.8419998E-4,0.0,
,,,2.856E-4,-8.0E-4,
,,,2.87E-4,0.0,
,,,2.8839998E-4,0.0,
,,,2.898E-4,0.0016,
,,,2.912E-4,0.0016,
,,,2.926E-4,0.0,
,,,2.94E-4,0.0,
,,,2.954E-4,8.0E-4,
,,,2.968E-4,0.0023999999,
,,,2.982E-4,-8.0E-4,
,,,2.9959998E-4,0.0032,
,,,3.01E-4,-8.0E-4,
,,,3.024E-4,8.0E-4,
,,,3.0379998E-4,8.0E-4,
,,,3.052E-4,0.0,
,,,3.066E-4,8.0E-4,
,,,3.08E-4,-8.0E-4,
,,,3.094E-4,0.0016,
,,,3.1079998E-4,0.0,
,,,3.122E-4,0.0,
,,,3.136E-4,-8.0E-4,
,,,3.1499998E-4,-8.0E-4,
,,,3.164E-4,0.0016,
,,,3.178E-4,0.0016,
,,,3.192E-4,0.0,
,,,3.206E-4,-8.0E-4,
,,,3.22E-4,0.0,
,,,3.234E-4,8.0E-4,
,,,3.248E-4,8.0E-4,
,,,3.2619998E-4,0.0016,
,,,3.276E-4,0.0,
,,,3.29E-4,8.0E-4,
,,,3.3039998E-4,-8.0E-4,
,,,3.318E-4,8.0E-4,
,,,3.332E-4,8.0E-4,
,,,3.346E-4,-8.0E-4,
,,,3.36E-4,0.0,
,,,3.374E-4,-8.0E-4,
,,,3.388E-4,0.0016,
,,,3.402E-4,-8.0E-4,
,,,3.4159998E-4,-8.0E-4,
,,,3.43E-4,0.0016,
,,,3.444E-4,0.0,
,,,3.4579998E-4,8.0E-4,
,,,3.472E-4,0.0023999999,
,,,3.486E-4,-8.0E-4,
,,,3.5E-4,0.0016,
,,,3.514E-4,0.0,
,,,3.5279998E-4,-8.0E-4,
,,,3.542E-4,0.0,
,,,3.556E-4,8.0E-4,
,,,3.5699998E-4,8.0E-4,
,,,3.584E-4,8.0E-4,
,,,3.598E-4,-0.0019999999,
,,,3.612E-4,0.0016,
,,,3.626E-4,0.0,
,,,3.64E-4,0.0,
,,,3.654E-4,8.0E-4,
,,,3.668E-4,-8.0E-4,
,,,3.6819998E-4,0.0,
,,,3.696E-4,-8.0E-4,
,,,3.71E-4,0.0016,
,,,3.7239998E-4,0.0016,
,,,3.738E-4,0.0,
,,,3.752E-4,8.0E-4,
,,,3.766E-4,-8.0E-4,
,,,3.78E-4,0.0023999999,
,,,3.7939998E-4,8.0E-4,
,,,3.808E-4,0.0,
,,,3.822E-4,-0.0028,
,,,3.8359998E-4,0.0016,
,,,3.85E-4,8.0E-4,
,,,3.864E-4,8.0E-4,
,,,3.8779998E-4,-8.0E-4,
,,,3.892E-4,-8.0E-4,
,,,3.906E-4,8.0E-4,
,,,3.92E-4,0.0,
,,,3.934E-4,8.0E-4,
,,,3.9479998E-4,-8.0E-4,
,,,3.962E-4,0.0016,
,,,3.976E-4,0.0,
,,,3.9899998E-4,8.0E-4,
,,,4.004E-4,8.0E-4,
,,,4.018E-4,-0.0019999999,
,,,4.0319999E-4,0.0016,
,,,4.046E-4,0.0,
,,,4.06E-4,0.0016,
,,,4.074E-4,-8.0E-4,
,,,4.088E-4,-8.0E-4,
,,,4.1019998E-4,8.0E-4,
,,,4.116E-4,0.0,
,,,4.13E-4,0.0016,
,,,4.1439998E-4,-8.0E-4,
,,,4.158E-4,0.0,
,,,4.172E-4,0.0016,
,,,4.186E-4,0.0,
,,,4.2E-4,0.0016,
,,,4.2139998E-4,-8.0E-4,
,,,4.228E-4,0.0,
,,,4.242E-4,8.0E-4,
,,,4.2559998E-4,0.0,
,,,4.27E-4,0.0016,
,,,4.284E-4,-8.0E-4,
,,,4.2979998E-4,0.0016,
,,,4.312E-4,0.0,
,,,4.326E-4,0.0016,
,,,4.34E-4,0.0,
,,,4.354E-4,-8.0E-4,
,,,4.3679998E-4,8.0E-4,
,,,4.382E-4,0.0,
,,,4.396E-4,0.0016,
,,,4.4099998E-4,0.0,
,,,4.424E-4,-0.0019999999,
,,,4.438E-4,0.0016,
,,,4.4519998E-4,8.0E-4,
,,,4.466E-4,0.0023999999,
,,,4.4799998E-4,0.0,
,,,4.494E-4,-8.0E-4,
,,,4.508E-4,8.0E-4,
,,,4.5219998E-4,8.0E-4,
,,,4.536E-4,-8.0E-4,
,,,4.55E-4,0.0,
,,,4.5639998E-4,0.0,
,,,4.578E-4,0.0016,
,,,4.592E-4,0.0,
,,,4.606E-4,-0.0019999999,
,,,4.62E-4,8.0E-4,
,,,4.6339998E-4,0.0,
,,,4.648E-4,0.0,
,,,4.662E-4,8.0E-4,
,,,4.6759998E-4,-8.0E-4,
,,,4.69E-4,0.0,
,,,4.704E-4,8.0E-4,
,,,4.7179998E-4,0.0,
,,,4.732E-4,0.0016,
,,,4.746E-4,-0.0019999999,
,,,4.76E-4,0.0,
,,,4.774E-4,0.0016,
,,,4.7879998E-4,8.0E-4,
,,,4.802E-4,0.0039999997,
,,,4.816E-4,-8.0E-4,
,,,4.8299998E-4,0.0,
,,,4.844E-4,8.0E-4,
,,,4.858E-4,-8.0E-4,
,,,4.8719998E-4,0.0,
,,,4.886E-4,-0.0028,
,,,4.9E-4,0.0,
,,,4.914E-4,0.0016,
,,,4.9279997E-4,0.0,
,,,4.942E-4,8.0E-4,
,,,4.956E-4,-8.0E-4,
,,,4.97E-4,0.0,
,,,4.984E-4,0.0023999999,
,,,4.9979996E-4,-8.0E-4,
,,,5.012E-4,0.0,
,,,5.026E-4,-8.0E-4,
,,,5.04E-4,8.0E-4,
,,,5.054E-4,0.0016,
,,,5.068E-4,-8.0E-4,
,,,5.0819997E-4,-8.0E-4,
,,,5.096E-4,0.0016,
,,,5.11E-4,-8.0E-4,
,,,5.124E-4,-8.0E-4,
,,,5.138E-4,0.0016,
,,,5.1519996E-4,-8.0E-4,
,,,5.166E-4,8.0E-4,
,,,5.18E-4,0.0016,
,,,5.194E-4,8.0E-4,
,,,5.208E-4,0.0016,
,,,5.222E-4,-8.0E-4,
,,,5.2359997E-4,-8.0E-4,
,,,5.25E-4,0.0023999999,
,,,5.264E-4,8.0E-4,
,,,5.278E-4,8.0E-4,
,,,5.292E-4,0.0,
,,,5.3059997E-4,0.0,
,,,5.32E-4,0.0016,
,,,5.334E-4,-8.0E-4,
,,,5.348E-4,8.0E-4,
,,,5.362E-4,-0.0019999999,
,,,5.376E-4,8.0E-4,
,,,5.39E-4,8.0E-4,
,,,5.404E-4,-8.0E-4,
,,,5.418E-4,0.0023999999,
,,,5.432E-4,0.0,
,,,5.446E-4,0.0016,
,,,5.4599997E-4,-8.0E-4,
,,,5.474E-4,0.0,
,,,5.488E-4,8.0E-4,
,,,5.502E-4,-8.0E-4,
,,,5.516E-4,0.0016,
,,,5.5299996E-4,8.0E-4,
,,,5.544E-4,0.0,
,,,5.558E-4,8.0E-4,
,,,5.572E-4,0.0,
,,,5.586E-4,0.0,
,,,5.6E-4,-8.0E-4,
,,,5.6139997E-4,0.0,
,,,5.628E-4,8.0E-4,
,,,5.642E-4,0.0016,
,,,5.656E-4,0.0016,
,,,5.67E-4,-0.0019999999,
,,,5.6839996E-4,0.0,
,,,5.698E-4,0.0023999999,
,,,5.712E-4,0.0,
,,,5.726E-4,8.0E-4,
,,,5.74E-4,-0.0019999999,
,,,5.754E-4,0.0,
,,,5.7679997E-4,0.0016,
,,,5.782E-4,-8.0E-4,
,,,5.796E-4,0.0016,
,,,5.81E-4,-0.0019999999,
,,,5.824E-4,0.0,
,,,5.8379996E-4,0.0016,
,,,5.852E-4,0.0,
,,,5.866E-4,0.0016,
,,,5.88E-4,0.0,
,,,5.894E-4,0.0,
,,,5.908E-4,8.0E-4,
,,,5.9219997E-4,0.0,
,,,5.936E-4,8.0E-4,
,,,5.95E-4,-0.0019999999,
,,,5.964E-4,0.0,
,,,5.978E-4,0.0016,
,,,5.9919996E-4,-8.0E-4,
,,,6.006E-4,-8.0E-4,
,,,6.02E-4,-8.0E-4,
,,,6.034E-4,0.0,
,,,6.048E-4,8.0E-4,
,,,6.062E-4,8.0E-4,
,,,6.0759997E-4,0.0,
,,,6.09E-4,0.0016,
,,,6.104E-4,0.0023999999,
,,,6.118E-4,-8.0E-4,
,,,6.132E-4,0.0016,
,,,6.1459997E-4,0.0,
,,,6.16E-4,-8.0E-4,
,,,6.174E-4,8.0E-4,
,,,6.188E-4,0.0016,
,,,6.202E-4,0.0,
,,,6.2159996E-4,8.0E-4,
,,,6.2299997E-4,0.0,
,,,6.244E-4,-0.0019999999,
,,,6.258E-4,0.0016,
,,,6.272E-4,0.0016,
,,,6.286E-4,8.0E-4,
,,,6.2999997E-4,0.0023999999,
,,,6.314E-4,-8.0E-4,
,,,6.328E-4,-8.0E-4,
,,,6.342E-4,0.0023999999,
,,,6.356E-4,8.0E-4,
,,,6.3699996E-4,0.0,
,,,6.384E-4,0.0016,
,,,6.398E-4,-0.0019999999,
,,,6.412E-4,0.0016,
,,,6.426E-4,-8.0E-4,
,,,6.44E-4,-0.0019999999,
,,,6.4539997E-4,8.0E-4,
,,,6.468E-4,-8.0E-4,
,,,6.482E-4,0.0016,
,,,6.496E-4,0.0,
,,,6.51E-4,8.0E-4,
,,,6.5239996E-4,0.0016,
,,,6.538E-4,0.0,
,,,6.552E-4,0.0016,
,,,6.566E-4,-8.0E-4,
,,,6.58E-4,8.0E-4,
,,,6.594E-4,0.0,
,,,6.6079997E-4,-0.0019999999,
,,,6.622E-4,0.0023999999,
,,,6.636E-4,-8.0E-4,
,,,6.65E-4,0.0,
,,,6.664E-4,8.0E-4,
,,,6.6779996E-4,8.0E-4,
,,,6.692E-4,0.0039999997,
,,,6.706E-4,-0.0019999999,
,,,6.72E-4,8.0E-4,
,,,6.734E-4,8.0E-4,
,,,6.748E-4,8.0E-4,
,,,6.7619997E-4,0.0,
,,,6.776E-4,-8.0E-4,
,,,6.79E-4,0.0,
,,,6.804E-4,0.0,
,,,6.818E-4,8.0E-4,
,,,6.8319996E-4,8.0E-4,
,,,6.846E-4,-0.0019999999,
,,,6.86E-4,-8.0E-4,
,,,6.874E-4,-0.0019999999,
,,,6.888E-4,0.0032,
,,,6.9019996E-4,0.0,
,,,6.9159997E-4,0.0016,
,,,6.93E-4,0.0,
,,,6.944E-4,0.0032,
,,,6.958E-4,8.0E-4,
,,,6.972E-4,-8.0E-4,
,,,6.9859996E-4,0.0,
,,,7.0E-4,0.0,
,,,7.014E-4,0.0016,
,,,7.028E-4,-8.0E-4,
,,,7.042E-4,0.0,
,,,7.0559996E-4,8.0E-4,
,,,7.0699997E-4,-8.0E-4,
,,,7.084E-4,8.0E-4,
,,,7.098E-4,-8.0E-4,
,,,7.112E-4,8.0E-4,
,,,7.126E-4,0.0016,
,,,7.1399997E-4,-8.0E-4,
,,,7.154E-4,8.0E-4,
,,,7.168E-4,0.0,
,,,7.182E-4,-8.0E-4,
,,,7.196E-4,8.0E-4,
,,,7.2099996E-4,8.0E-4,
,,,7.224E-4,8.0E-4,
,,,7.238E-4,8.0E-4,
,,,7.252E-4,-8.0E-4,
,,,7.266E-4,8.0E-4,
,,,7.28E-4,0.0023999999,
,,,7.2939997E-4,-0.0019999999,
,,,7.308E-4,0.0016,
,,,7.322E-4,0.0016,
,,,7.336E-4,0.0,
,,,7.35E-4,0.0016,
,,,7.3639996E-4,0.0023999999,
,,,7.378E-4,8.0E-4,
,,,7.392E-4,0.0016,
,,,7.406E-4,0.0,
,,,7.42E-4,8.0E-4,
,,,7.434E-4,8.0E-4,
,,,7.4479997E-4,-0.0019999999,
,,,7.462E-4,8.0E-4,
,,,7.476E-4,-8.0E-4,
,,,7.49E-4,0.0,
,,,7.504E-4,8.0E-4,
,,,7.5179996E-4,-8.0E-4,
,,,7.532E-4,8.0E-4,
,,,7.546E-4,-8.0E-4,
,,,7.56E-4,0.0016,
,,,7.574E-4,0.0,
,,,7.5879996E-4,8.0E-4,
,,,7.6019997E-4,8.0E-4,
,,,7.616E-4,8.0E-4,
,,,7.63E-4,0.0,
,,,7.644E-4,0.0,
,,,7.658E-4,0.0,
,,,7.6719996E-4,0.0023999999,
,,,7.686E-4,-0.0019999999,
,,,7.7E-4,8.0E-4,
,,,7.714E-4,-8.0E-4,
,,,7.728E-4,8.0E-4,
,,,7.7419996E-4,8.0E-4,
,,,7.7559997E-4,0.0016,
,,,7.77E-4,0.0016,
,,,7.784E-4,-0.0019999999,
,,,7.798E-4,8.0E-4,
,,,7.812E-4,0.0,
,,,7.8259996E-4,8.0E-4,
,,,7.84E-4,0.0,
,,,7.854E-4,0.0016,
,,,7.868E-4,8.0E-4,
,,,7.882E-4,8.0E-4,
,,,7.8959996E-4,0.0,
,,,7.9099997E-4,8.0E-4,
,,,7.924E-4,0.0,
,,,7.938E-4,-8.0E-4,
,,,7.952E-4,0.0016,
,,,7.966E-4,8.0E-4,
,,,7.9799996E-4,8.0E-4,
,,,7.994E-4,-8.0E-4,
,,,8.008E-4,0.0,
,,,8.022E-4,8.0E-4,
,,,8.036E-4,0.0023999999,
,,,8.0499996E-4,0.0,
,,,8.0639997E-4,8.0E-4,
,,,8.078E-4,0.0,
,,,8.092E-4,0.0023999999,
,,,8.106E-4,-0.0019999999,
,,,8.12E-4,8.0E-4,
,,,8.1339997E-4,-8.0E-4,
,,,8.148E-4,0.0023999999,
,,,8.162E-4,0.0016,
,,,8.176E-4,0.0,
,,,8.19E-4,0.0,
,,,8.2039996E-4,0.0,
,,,8.218E-4,8.0E-4,
,,,8.232E-4,0.0016,
,,,8.246E-4,-8.0E-4,
,,,8.26E-4,8.0E-4,
,,,8.2739996E-4,8.0E-4,
,,,8.2879997E-4,0.0,
,,,8.302E-4,0.0023999999,
,,,8.316E-4,-0.0019999999,
,,,8.33E-4,-0.0019999999,
,,,8.344E-4,0.0023999999,
,,,8.3579996E-4,8.0E-4,
,,,8.372E-4,-8.0E-4,
,,,8.386E-4,0.0,
,,,8.4E-4,8.0E-4,
,,,8.414E-4,0.0,
,,,8.4279996E-4,0.0023999999,
,,,8.4419997E-4,0.0,
,,,8.456E-4,0.0,
,,,8.47E-4,8.0E-4,
,,,8.484E-4,-8.0E-4,
,,,8.498E-4,8.0E-4,
,,,8.5119996E-4,0.0016,
,,,8.526E-4,-0.0019999999,
,,,8.54E-4,8.0E-4,
,,,8.554E-4,0.0016,
,,,8.568E-4,0.0,
,,,8.5819996E-4,8.0E-4,
,,,8.5959997E-4,-8.0E-4,
,,,8.61E-4,0.0,
,,,8.624E-4,0.0023999999,
,,,8.638E-4,-8.0E-4,
,,,8.652E-4,8.0E-4,
,,,8.6659996E-4,8.0E-4,
,,,8.68E-4,0.0,
,,,8.694E-4,8.0E-4,
,,,8.708E-4,8.0E-4,
,,,8.722E-4,-8.0E-4,
,,,8.7359996E-4,0.0016,
,,,8.7499997E-4,0.0,
,,,8.764E-4,8.0E-4,
,,,8.778E-4,8.0E-4,
,,,8.792E-4,0.0,
,,,8.806E-4,0.0023999999,
,,,8.8199996E-4,0.0016,
,,,8.834E-4,8.0E-4,
,,,8.848E-4,8.0E-4,
,,,8.862E-4,-8.0E-4,
,,,8.876E-4,0.0016,
,,,8.8899996E-4,0.0,
,,,8.9039997E-4,8.0E-4,
,,,8.918E-4,-8.0E-4,
,,,8.932E-4,-8.0E-4,
,,,8.946E-4,-8.0E-4,
,,,8.9599995E-4,0.0,
,,,8.9739996E-4,0.0016,
,,,8.988E-4,-8.0E-4,
,,,9.002E-4,0.0,
,,,9.016E-4,-8.0E-4,
,,,9.03E-4,8.0E-4,
,,,9.0439996E-4,8.0E-4,
,,,9.0579997E-4,0.0,
,,,9.072E-4,0.0,
,,,9.086E-4,-8.0E-4,
,,,9.1E-4,0.0023999999,
,,,9.1139995E-4,-0.0028,
,,,9.1279997E-4,0.0016,
,,,9.142E-4,0.0,
,,,9.156E-4,8.0E-4,
,,,9.17E-4,8.0E-4,
,,,9.184E-4,8.0E-4,
,,,9.1979996E-4,0.0032,
,,,9.212E-4,-8.0E-4,
,,,9.226E-4,-8.0E-4,
,,,9.24E-4,8.0E-4,
,,,9.254E-4,0.0,
,,,9.2679996E-4,0.0016,
,,,9.2819997E-4,8.0E-4,
,,,9.296E-4,-0.0019999999,
,,,9.31E-4,8.0E-4,
,,,9.324E-4,8.0E-4,
,,,9.338E-4,-8.0E-4,
,,,9.3519996E-4,0.0016,
,,,9.366E-4,8.0E-4,
,,,9.38E-4,-0.0019999999,
,,,9.394E-4,0.0,
,,,9.408E-4,0.0016,
,,,9.4219996E-4,8.0E-4,
,,,9.4359997E-4,0.0,
,,,9.45E-4,8.0E-4,
,,,9.464E-4,0.0,
,,,9.478E-4,0.0,
,,,9.492E-4,0.0023999999,
,,,9.5059996E-4,8.0E-4,
,,,9.52E-4,0.0,
,,,9.534E-4,8.0E-4,
,,,9.548E-4,0.0,
,,,9.562E-4,0.0,
,,,9.5759996E-4,0.0023999999,
,,,9.5899997E-4,8.0E-4,
,,,9.604E-4,-8.0E-4,
,,,9.618E-4,8.0E-4,
,,,9.632E-4,8.0E-4,
,,,9.646E-4,8.0E-4,
,,,9.6599996E-4,8.0E-4,
,,,9.674E-4,8.0E-4,
,,,9.688E-4,-8.0E-4,
,,,9.702E-4,0.0,
,,,9.716E-4,8.0E-4,
,,,9.7299996E-4,0.0,
,,,9.7439997E-4,8.0E-4,
,,,9.758E-4,0.0,
,,,9.772E-4,-8.0E-4,
,,,9.786E-4,0.0,
,,,9.8E-4,0.0016,
,,,9.814E-4,0.0,
,,,9.828E-4,-8.0E-4,
,,,9.841999E-4,0.0023999999,
,,,9.855999E-4,8.0E-4,
,,,9.87E-4,8.0E-4,
,,,9.884E-4,0.0016,
,,,9.898E-4,0.0016,
,,,9.912E-4,-8.0E-4,
,,,9.926E-4,8.0E-4,
,,,9.94E-4,0.0016,
,,,9.954E-4,0.0,
,,,9.968E-4,8.0E-4,
,,,9.982E-4,0.0,
,,,9.995999E-4,8.0E-4,
,,,0.0010009999,8.0E-4,
,,,0.0010024,-8.0E-4,
,,,0.0010038,8.0E-4,
,,,0.0010052,0.0,
,,,0.0010066,0.0,
,,,0.001008,0.0016,
,,,0.0010094,0.0,
,,,0.0010108,-8.0E-4,
,,,0.0010122,8.0E-4,
,,,0.0010136,-0.0019999999,
,,,0.0010149999,8.0E-4,
,,,0.0010163999,0.0016,
,,,0.0010178,0.0,
,,,0.0010192,0.0,
,,,0.0010206,0.0,
,,,0.001022,8.0E-4,
,,,0.0010234,0.0032,
,,,0.0010248,-8.0E-4,
,,,0.0010262,-0.0019999999,
,,,0.0010276,0.0,
,,,0.001029,0.0,
,,,0.0010303999,0.0,
,,,0.0010317999,8.0E-4,
,,,0.0010332,-8.0E-4,
,,,0.0010346,8.0E-4,
,,,0.001036,0.0016,
,,,0.0010374,0.0023999999,
,,,0.0010388,0.0,
,,,0.0010402,8.0E-4,
,,,0.0010416,8.0E-4,
,,,0.001043,8.0E-4,
,,,0.0010444,8.0E-4,
,,,0.0010457999,0.0016,
,,,0.0010471999,-0.0019999999,
,,,0.0010486,-8.0E-4,
,,,0.00105,0.0016,
,,,0.0010514,8.0E-4,
,,,0.0010528,-8.0E-4,
,,,0.0010542,0.0016,
,,,0.0010556,0.0,
,,,0.001057,0.0,
,,,0.0010584,0.0016,
,,,0.0010598,0.0,
,,,0.0010611999,8.0E-4,
,,,0.0010626,8.0E-4,
,,,0.001064,0.0,
,,,0.0010654,0.0023999999,
,,,0.0010668,0.0,
,,,0.0010682,-8.0E-4,
,,,0.0010696,0.0,
,,,0.001071,-0.0019999999,
,,,0.0010724,8.0E-4,
,,,0.0010738,0.0023999999,
,,,0.0010752,-0.0019999999,
,,,0.0010765999,8.0E-4,
,,,0.001078,8.0E-4,
,,,0.0010794,0.0,
,,,0.0010808,0.0016,
,,,0.0010822,0.0,
,,,0.0010836,8.0E-4,
,,,0.001085,8.0E-4,
,,,0.0010864,0.0,
,,,0.0010878,0.0016,
,,,0.0010892,-8.0E-4,
,,,0.0010905999,-0.0019999999,
,,,0.0010919999,8.0E-4,
,,,0.0010934,0.0016,
,,,0.0010948,8.0E-4,
,,,0.0010962,8.0E-4,
,,,0.0010976,0.0,
,,,0.001099,0.0016,
,,,0.0011004,0.0023999999,
,,,0.0011018,8.0E-4,
,,,0.0011032,0.0023999999,
,,,0.0011046,0.0,
,,,0.0011059999,-8.0E-4,
,,,0.0011073999,8.0E-4,
,,,0.0011088,0.0,
,,,0.0011102,0.0016,
,,,0.0011116,0.0,
,,,0.001113,-8.0E-4,
,,,0.0011144,0.0016,
,,,0.0011158,8.0E-4,
,,,0.0011172,0.0,
,,,0.0011186,8.0E-4,
,,,0.00112,-0.0019999999,
,,,0.0011213999,0.0016,
,,,0.0011227999,8.0E-4,
,,,0.0011242,-8.0E-4,
,,,0.0011256,8.0E-4,
,,,0.001127,-8.0E-4,
,,,0.0011284,-0.0019999999,
,,,0.0011298,0.0016,
,,,0.0011312,8.0E-4,
,,,0.0011326,0.0,
,,,0.001134,8.0E-4,
,,,0.0011354,0.0016,
,,,0.0011367999,0.0,
,,,0.0011381999,8.0E-4,
,,,0.0011396,8.0E-4,
,,,0.001141,0.0,
,,,0.0011424,8.0E-4,
,,,0.0011438,8.0E-4,
,,,0.0011452,-0.0019999999,
,,,0.0011466,-8.0E-4,
,,,0.001148,0.0016,
,,,0.0011494,0.0023999999,
,,,0.0011508,0.0,
,,,0.0011521999,8.0E-4,
,,,0.0011535999,-8.0E-4,
,,,0.001155,-8.0E-4,
,,,0.0011564,8.0E-4,
,,,0.0011578,8.0E-4,
,,,0.0011592,-8.0E-4,
,,,0.0011606,8.0E-4,
,,,0.001162,-0.0019999999,
,,,0.0011634,0.0032,
,,,0.0011648,0.0016,
,,,0.0011662,0.0,
,,,0.0011675999,8.0E-4,
,,,0.0011689999,0.0,
,,,0.0011704,0.0016,
,,,0.0011718,0.0016,
,,,0.0011732,0.0,
,,,0.0011746,8.0E-4,
,,,0.001176,-0.0019999999,
,,,0.0011774,0.0,
,,,0.0011788,0.0,
,,,0.0011802,-8.0E-4,
,,,0.0011816,0.0016,
,,,0.0011829999,0.0,
,,,0.0011843999,0.0,
,,,0.0011858,0.0,
,,,0.0011872,0.0,
,,,0.0011886,0.0016,
,,,0.00119,-8.0E-4,
,,,0.0011914,8.0E-4,
,,,0.0011928,8.0E-4,
,,,0.0011942,8.0E-4,
,,,0.0011956,8.0E-4,
,,,0.001197,-8.0E-4,
,,,0.0011983999,8.0E-4,
,,,0.0011997999,8.0E-4,
,,,0.0012012,-8.0E-4,
,,,0.0012026,0.0023999999,
,,,0.001204,8.0E-4,
,,,0.0012054,-0.0019999999,
,,,0.0012068,0.0,
,,,0.0012082,-8.0E-4,
,,,0.0012096,0.0016,
,,,0.001211,8.0E-4,
,,,0.0012124,0.0,
,,,0.0012137999,0.0016,
,,,0.0012151999,-8.0E-4,
,,,0.0012166,8.0E-4,
,,,0.001218,-8.0E-4,
,,,0.0012194,8.0E-4,
,,,0.0012208,0.0,
,,,0.0012222,0.0,
,,,0.0012236,8.0E-4,
,,,0.001225,8.0E-4,
,,,0.0012264,0.0032,
,,,0.0012277999,0.0,
,,,0.0012291999,-8.0E-4,
,,,0.0012305999,8.0E-4,
,,,0.001232,-8.0E-4,
,,,0.0012334,0.0016,
,,,0.0012348,0.0,
,,,0.0012362,8.0E-4,
,,,0.0012376,0.0016,
,,,0.001239,0.0,
,,,0.0012404,0.0,
,,,0.0012418,0.0016,
,,,0.0012431999,-8.0E-4,
,,,0.0012445999,0.0016,
,,,0.0012459999,0.0,
,,,0.0012474,-0.0019999999,
,,,0.0012488,8.0E-4,
,,,0.0012502,0.0,
,,,0.0012516,0.0,
,,,0.001253,0.0023999999,
,,,0.0012544,-8.0E-4,
,,,0.0012558,0.0,
,,,0.0012572,-8.0E-4,
,,,0.0012585999,0.0,
,,,0.0012599999,0.0016,
,,,0.0012614,0.0016,
,,,0.0012628,-8.0E-4,
,,,0.0012642,8.0E-4,
,,,0.0012656,-0.0019999999,
,,,0.001267,8.0E-4,
,,,0.0012684,0.0,
,,,0.0012698,8.0E-4,
,,,0.0012712,0.0,
,,,0.0012726,-0.0019999999,
,,,0.0012739999,8.0E-4,
,,,0.0012753999,0.0023999999,
,,,0.0012768,8.0E-4,
,,,0.0012782,8.0E-4,
,,,0.0012796,-0.0028,
,,,0.001281,8.0E-4,
,,,0.0012824,-8.0E-4,
,,,0.0012838,8.0E-4,
,,,0.0012852,8.0E-4,
,,,0.0012866,0.0,
,,,0.001288,8.0E-4,
,,,0.0012893999,0.0,
,,,0.0012907999,-8.0E-4,
,,,0.0012922,0.0023999999,
,,,0.0012936,0.0,
,,,0.001295,0.0,
,,,0.0012964,-0.0019999999,
,,,0.0012978,-0.0019999999,
,,,0.0012992,8.0E-4,
,,,0.0013006,0.0016,
,,,0.001302,-8.0E-4,
,,,0.0013034,0.0016,
,,,0.0013047999,-8.0E-4,
,,,0.0013061999,0.0,
,,,0.0013076,8.0E-4,
,,,0.001309,8.0E-4,
,,,0.0013104,0.0016,
,,,0.0013118,8.0E-4,
,,,0.0013132,-0.0028,
,,,0.0013146,8.0E-4,
,,,0.001316,-8.0E-4,
